1,1,almacen@amfavitrum.com,AVaal2o18@mfa,250 MB,1
2,1,almacen3@amfavitrum.com,AVaal2o18@mfa,250 MB,1
3,1,jalmacen@amfavitrum.com,AVaje2o18@mfa,250 MB,1
4,1,as_almacen@amfavitrum.com,AVaas2o18@mfa,250 MB,1
5,1,as_almacen02@amfavitrum.com,AVaas2o18@mfa,250 MB,1
6,2,artesgraficas@amfavitrum.com,AVgje2o18@mfa,250 MB,1
7,2,as_graficas@amfavitrum.com,AVgas2o18@mfa,250 MB,1
8,3,laboratorio@amfavitrum.com,AVcla2o18@mfa,250 MB,1
9,3,jasegcalidad@amfavitrum.com,AVcje2o18@mfa,250 MB,1
10,3,as_sig@amfavitrum.com,AVcas2o18@mfa,250 MB,1
11,3,as_asegcalidad@amfavitrum.com,AVcas2o18@mfa,250 MB,1
12,3,as_ccalidad@amfavitrum.com,AVcas2o18@mfa,250 MB,1
13,3,as_ssoma@amfavitrum.com,AVcso2o18@mfa,250 MB,1
14,4,auxcontable@amfavitrum.com,AVfas2o18@mfa,250 MB,1
15,4,as_contable@amfavitrum.com,AVfas2o18@mfa,250 MB,1
16,4,contabilidad@amfavitrum.com,AVfje2o18@mfa,250 MB,1
17,4,tesoreria@amfavitrum.com,AVfte2o18@mfa,250 MB,1
18,4,costos@amfavitrum.com,AVfje2o18@mfa,250 MB,1
19,4,gestion@amfavitrum.com,AVfge2o18@mfa,250 MB,1
20,4,as_gtl@amfavitrum.com,AVfau2o18@mfa,250 MB,1
21,4,acontable@amfavitrum.com,AVfau2o18@mfa,250 MB,1
22,5,coordmejora@amfavitrum.com,AVmco2o18@mfa,250 MB,1
23,5,c.mejora@amfavitrum.com,AVmco2o18@mfa,250 MB,1
24,6,operaciones@amfavitrum.com,Avogp2018@amfa,250 MB,1
25,6,agerencia@amfavitrum.com,AVgas2o18@mfa,250 MB,1
26,6,estrategia@amfavitrum.com,AVgas2o18@mfa,250 MB,1
27,6,direccion@amfavitrum.com,AVgas2o18@mfa,250 MB,1
28,6,negocios@amfavitrum.com,AVgge2o18@mfa,1024 MB,1
29,7,logistica@amfavitrum.com,AVlex2o18@mfa,250 MB,1
30,7,logistica3@amfavitrum.com,AVlas2o18@mfa,250 MB,1
31,7,logistica2@amfavitrum.com,AVlpr2o18@mfa,250 MB,1
32,7,jlogistica@amfavitrum.com,AVlje2o18@mfa,250 MB,1
33,8,as_mantenimiento@amfavitrum.com,AVmas2o18@mfa,250 MB,1
34,8,mantenimiento@amfavitrum.com,AVmas2o18@mfa,250 MB,1
35,8,tecnicos@amfavitrum.com,AVmte2o18@mfa,250 MB,1
36,8,as_mantenimiento2@amfavitrum.com,AVmas2o18@mfa,250 MB,1
37,9,pcp@amfavitrum.com,AVpje2o18@mfa,250 MB,1
38,9,as_pcp@amfavitrum.com,AVpas2o18@mfa,250 MB,1
39,10,empaque@amfavitrum.com,AVeje2o18@mfa,250 MB,1
40,10,jproducciont1@amfavitrum.com,AVpje2o18@mfa,250 MB,1
41,10,as_produccion@amfavitrum.com.pe,,250 MB,0
42,10,supervisor.produccion@amfavitrum.com,AVpsu2o18@mfa,250 MB,1
43,10,supervisor_planta@amfavitrum.com,AVpsu2o18@mfa,250 MB,1
44,11,gtl@amfavitrum.com,AVrje2o18@mfa,250 MB,1
45,11,trabajadorasocial@amfavitrum.com,AVrts2o18@mfa,250 MB,1
46,11,as_gtl2@amfavitrum.com,AVras2o18@mfa,250 MB,1
47,13,saludocupacional@amfavitrum.com,AVpsa2o18@mfa,250 MB,1
48,14,encargado.ti@amfavitrum.com,AVten2o18@mfa,512 MB,1
49,14,as_ti@amfavitrum.com,AVtas2o18@mfa,512 MB,1
50,15,ventas@amfavitrum.com,AVvje2o18@mfa,512 MB,1
51,15,as_ventas@amfavitrum.com,Avvas2o18@mfa,512 MB,1
52,15,ascomercial@amfavitrum.com,Avvas2o18@mfa,512 MB,1
53,15,cliente@amfavitrum.com,AVvcl2o18@mfa,512 MB,1
